<?xml version="1.0" encoding="utf-8"?>
<!-- Generator: Adobe Illustrator 25.4.1, SVG Export Plug-In . SVG Version: 6.00 Build 0)  -->
<svg version="1.1" id="Layer_1" xmlns="http://www.w3.org/2000/svg" xmlns:xlink="http://www.w3.org/1999/xlink" x="0px" y="0px"
	 viewBox="0 0 10 10" style="enable-background:new 0 0 10 10;" xml:space="preserve">
<style type="text/css">
	.st0{fill:#2F72B8;}
</style>
<desc>Created by EvoPdf</desc>
<g>
	<g transform="matrix(1,0,0,1,0,0)">
	</g>
	<g transform="matrix(1,0,0,1,0,0)">
	</g>
	<g transform="matrix(1,0,0,1,0,0)">
	</g>
	<g transform="matrix(1,0,0,1,0,0)">
	</g>
	<g transform="matrix(0.03125,0,0,0.03125,507,8)">
	</g>
	<g transform="matrix(0.03125,0,0,0.03125,507,8)">
		<path vector-effect="none" class="st0" d="M-16016.4-96l107.7-107.7c6.2-6.2,6.2-16.3,0-22.6l-25-25c-6.2-6.2-16.3-6.2-22.6,0
			l-107.7,107.7l-107.7-107.7c-6.2-6.2-16.3-6.2-22.6,0l-25,25c-6.2,6.2-6.2,16.3,0,22.6l107.7,107.7l-107.7,107.7
			c-6.2,6.2-6.2,16.3,0,22.6l25,25c6.2,6.2,16.3,6.2,22.6,0l107.7-107.7l107.7,107.7c6.2,6.2,16.3,6.2,22.6,0l25-25
			c6.2-6.2,6.2-16.3,0-22.6L-16016.4-96"/>
	</g>
	<g transform="matrix(0.03125,0,0,0.03125,507,8)">
	</g>
	<g transform="matrix(0.03125,0,0,0.03125,507,8)">
	</g>
	<g transform="matrix(1,0,0,1,0,0)">
	</g>
	<g transform="matrix(1,0,0,1,0,0)">
	</g>
	<g transform="matrix(1,0,0,1,0,0)">
	</g>
	<g transform="matrix(1,0,0,1,0,0)">
	</g>
	<g transform="matrix(0.03125,0,0,0.03125,507,8)">
	</g>
	<g transform="matrix(1,0,0,1,0,0)">
	</g>
	<g transform="matrix(1,0,0,1,0,0)">
	</g>
	<g transform="matrix(1,0,0,1,0,0)">
	</g>
	<g transform="matrix(1,0,0,1,0,0)">
	</g>
	<g transform="matrix(1,0,0,1,0,0)">
	</g>
	<g transform="matrix(1,0,0,1,0,0)">
	</g>
</g>
</svg>
